<?xml version="1.0" encoding="utf-8"?>
<!-- Generator: Adobe Illustrator 16.0.0, SVG Export Plug-In . SVG Version: 6.00 Build 0)  -->
<!DOCTYPE svg PUBLIC "-//W3C//DTD SVG 1.1//EN" "http://www.w3.org/Graphics/SVG/1.1/DTD/svg11.dtd">
<svg version="1.1" id="Capa_1" xmlns="http://www.w3.org/2000/svg" xmlns:xlink="http://www.w3.org/1999/xlink" x="0px" y="0px"
	 width="841.891px" height="1190.551px" viewBox="0 0 841.891 1190.551" enable-background="new 0 0 841.891 1190.551"
	 xml:space="preserve">
<g id="Capa_3">
	<g>
		<path fill="none" stroke="#000000" stroke-miterlimit="10" d="M485.754,540.975c-12.666,44.668-50.666,60-50.666,60
			c-2,13.334-9.666,14.668-9.666,14.668h-63.668c-53.333-20.668-76-71.334-68.667-119.334s56.001-70.666,56.001-70.666
			s6.666-3.334,12.666,4.666c0,0,31.334-12.666,63.668-1.332c49.533,61.825,44.034,54.688,56.224,78.557"/>
		<path fill="none" stroke="#000000" stroke-miterlimit="10" d="M425.422,428.975c0,0-3,2.668,22,35.668s34.224,42.89,34.224,42.89
			s-1.226,28.107,4.108,33.442"/>
	</g>
	<path fill="none" stroke="#000000" stroke-miterlimit="10" d="M429.458,613.35c0,0,18.632-1.372,34.298,2.293
		c0,0,23.666,4.332,33.666,38.332c0,0,8.668,12.998,9.334,30.332s0.332,32.668-6.668,46.334c0,0-0.998,8-6.332,14.334
		c-5.334,6.332-25.531,14.332-25.531,14.332s-40.469,8.165-67.637,6.831"/>
	<path fill="none" stroke="#000000" stroke-miterlimit="10" d="M357.719,613.35c0,0-18.632-1.372-34.297,2.293
		c0,0-21.048,2.738-31.678,33.666c-0.396,1.149-2.4,6.644-2.759,7.862c0,0-2.898,12.136-3.564,29.47s3,30.328,10,43.994
		c0,0,0.333,8.667,5.667,15s26,12,26,12s46.334,9.837,73.5,8.503"/>
	<path fill="none" stroke="#000000" stroke-miterlimit="10" d="M297.821,636.014c0,0-0.4,10.629,81.935,11.961
		c82.334,1.334,111.239-9.47,111.239-9.47"/>
	<path fill="none" stroke="#000000" stroke-miterlimit="10" d="M292.719,646.628c0,0,9.035,11.682,61.703,12.348
		c52.666,0.666,52.666,0.666,52.666,0.666h40c0,0,39.724-2.438,48.361-11.552"/>
	<path fill="none" stroke="#000000" stroke-miterlimit="10" d="M452.422,735.641c0,0-76.5,8.334-116.668-2.666"/>
	<path fill="none" stroke="#000000" stroke-miterlimit="10" d="M490.738,729.622c-2.313,6.031-1.357,5.703-0.663,5.947
		c0.697,0.242,0.935,0.325,3.181-5.068c2.223-5.333,1.362-5.705,0.663-5.947C493.227,724.309,492.959,723.83,490.738,729.622z"/>
	<path fill="none" stroke="#000000" stroke-miterlimit="10" d="M500.966,720.979c0,0-2.776,6.643-2.794,7.917
		c-0.015,1.145,0.25,1.25,0.25,1.25s0.854,0.622,1.969-0.105"/>
	<path fill="none" stroke="#000000" stroke-miterlimit="10" d="M503.804,721.361c0,0-1.326-3.336-2.839-0.382"/>
	<path fill="none" stroke="#000000" stroke-miterlimit="10" d="M361.754,615.643c0,0-1.582,4.832-4.332,5.582"/>
	<path fill="none" stroke="#000000" stroke-miterlimit="10" d="M426.872,615.122c0,0,1.05,5.104,4.55,6.104"/>
	<path fill="none" stroke="#000000" stroke-miterlimit="10" d="M342.967,616.725c0,0-18.795,2.25-1.295,4.5
		c0,0,90.399,3.502,105.5-0.827"/>
	<path fill="none" stroke="#000000" stroke-miterlimit="10" d="M361.754,430.309c0,0-3.994,12.597,26.995,22.666
		c26.673,8.668,35.563,25,36.617,28.668c1.056,3.666,10.252,13.474,6.056,51c-2.274,20.332-11.099,30.564-13,34.332
		c-5.523,10.942-14,30.334,13,41.668"/>
	<path fill="none" stroke="#000000" stroke-miterlimit="10" d="M443.267,459.091c0,0,14.764,8.932,18.792,24.575"/>
	<path stroke="#000000" stroke-miterlimit="10" d="M481.452,509.655c0,0,11.755,11.86,1.364,24.091"/>
</g>
</svg>
